<?xml version="1.0" standalone="no"?>
<!DOCTYPE svg PUBLIC "-//W3C//DTD SVG 20010904//EN"
 "http://www.w3.org/TR/2001/REC-SVG-20010904/DTD/svg10.dtd">
<svg version="1.0" xmlns="http://www.w3.org/2000/svg"
 width="150.000000pt" height="159.000000pt" viewBox="0 0 150.000000 159.000000"
 preserveAspectRatio="xMidYMid meet">

<g transform="translate(0.000000,159.000000) scale(0.100000,-0.100000)"
fill="#000000" stroke="none">
<path d="M685 1571 c-6 -5 -113 -72 -240 -148 -336 -203 -313 -187 -308 -217
3 -14 11 -26 19 -26 7 0 53 -19 103 -42 l89 -43 29 -66 30 -66 -18 -44 c-10
-24 -18 -61 -18 -82 -1 -44 40 -131 69 -147 25 -13 26 -37 1 -45 -10 -3 -46
-47 -80 -98 -91 -136 -171 -233 -218 -263 -38 -26 -73 -77 -73 -109 0 -11 12
-15 40 -15 36 0 40 -3 40 -25 0 -55 25 -82 85 -91 11 -2 51 -12 89 -23 63 -18
73 -18 98 -5 16 8 33 26 38 40 7 18 15 24 28 20 55 -16 73 -17 106 -1 37 18
39 22 36 68 l-2 27 92 0 92 0 -5 -26 c-11 -61 84 -99 154 -63 l39 19 0 -24 c0
-14 11 -37 24 -53 23 -27 26 -27 60 -15 20 8 64 13 97 13 80 0 109 25 109 94
0 33 4 45 15 45 8 0 -7 20 -33 44 l-47 44 -103 5 c-91 4 -105 2 -127 -15 -16
-12 -36 -18 -57 -16 l-33 3 48 29 c66 39 158 66 228 66 93 0 135 -29 169 -116
14 -37 20 -45 25 -32 10 24 -43 117 -80 141 -16 11 -50 46 -75 79 -25 33 -62
73 -83 90 -20 17 -51 51 -69 77 -17 25 -45 61 -62 79 -30 32 -30 32 -12 63 39
66 46 86 46 135 0 28 -7 71 -15 94 -15 43 -15 43 20 96 19 29 35 57 35 63 0
10 90 54 97 47 4 -3 -9 -111 -38 -324 -13 -95 -10 -101 48 -112 54 -9 123 17
108 40 -4 7 -49 293 -59 377 -7 53 -7 53 29 70 50 24 49 63 -2 94 -21 13 -58
43 -83 67 -36 35 -50 42 -72 38 -28 -6 -67 12 -285 132 -118 65 -123 67 -138
53z m179 -87 c162 -88 178 -98 169 -107 -13 -13 -30 -6 -163 64 -124 65 -160
90 -160 111 0 14 10 10 154 -68z m-174 57 c0 -20 -259 -176 -271 -164 -7 7
243 170 264 172 4 1 7 -3 7 -8z m35 -51 c3 -6 -1 -7 -9 -4 -18 7 -21 14 -7 14
6 0 13 -4 16 -10z m-55 -14 c0 -2 -9 -6 -20 -9 -11 -3 -18 -1 -14 4 5 9 34 13
34 5z m120 -22 c0 -2 -9 0 -20 6 -11 6 -20 13 -20 16 0 2 9 0 20 -6 11 -6 20
-13 20 -16z m60 -30 c0 -2 -9 0 -20 6 -11 6 -20 13 -20 16 0 2 9 0 20 -6 11
-6 20 -13 20 -16z m-195 -53 c-15 -13 -62 -26 -50 -13 6 5 19 12 30 15 11 3
22 5 25 6 2 0 0 -3 -5 -8z m142 -7 c-3 -3 -12 -4 -19 -1 -8 3 -5 6 6 6 11 1
17 -2 13 -5z m-365 -31 c45 -49 66 -112 33 -99 -8 3 -15 1 -15 -5 0 -5 8 -13
18 -17 13 -5 11 -8 -13 -13 l-30 -6 30 -12 c32 -13 32 -13 -22 -48 -16 -10
-16 -13 -3 -22 10 -7 11 -11 3 -11 -18 0 -38 -41 -25 -49 7 -4 8 -12 1 -21
-13 -22 -22 -4 -49 96 -45 168 -4 288 72 207z m661 -29 c14 -48 0 -150 -29
-214 -31 -69 -62 -104 -50 -56 5 20 2 34 -10 47 -9 10 -14 24 -12 31 3 7 -6
21 -19 31 -28 23 -30 37 -3 37 11 0 20 5 20 10 0 6 -7 10 -17 10 -15 0 -15 1
0 18 26 29 20 38 -8 12 -14 -13 -25 -18 -25 -11 0 24 40 89 71 115 28 24 34
25 52 13 12 -8 25 -27 30 -43z m-506 40 c-3 -3 -12 -4 -19 -1 -8 3 -5 6 6 6
11 1 17 -2 13 -5z m393 3 c0 -2 -11 -14 -24 -26 -18 -17 -26 -19 -31 -10 -5 7
-4 10 2 6 6 -4 18 2 28 13 17 19 25 24 25 17z m176 -24 c-10 -10 -19 5 -10 18
6 11 8 11 12 0 2 -7 1 -15 -2 -18z m-665 0 c13 -16 12 -17 -3 -4 -10 7 -18 15
-18 17 0 8 8 3 21 -13z m287 8 c20 -12 11 -75 -10 -79 -15 -3 -18 4 -18 42 0
47 4 52 28 37z m-448 -9 c0 -7 -101 -77 -147 -101 -18 -9 -23 -9 -23 1 1 7 35
34 78 60 79 48 92 54 92 40z m824 -31 c-3 -3 -15 6 -27 18 l-22 24 27 -19 c14
-10 24 -21 22 -23z m41 19 c3 -5 2 -10 -4 -10 -5 0 -13 5 -16 10 -3 6 -2 10 4
10 5 0 13 -4 16 -10z m85 -67 c0 -16 -5 -16 -31 -3 -10 6 -19 17 -19 25 0 12
5 12 25 3 14 -6 25 -17 25 -25z m-960 -8 c0 -19 -2 -35 -4 -35 -2 0 -6 16 -8
35 -2 19 0 35 4 35 4 0 8 -16 8 -35z m612 23 c-22 -22 -14 -86 13 -113 13 -14
19 -25 14 -25 -6 0 -1 -11 10 -25 15 -21 19 -37 16 -82 -2 -43 0 -60 12 -69
12 -8 17 -34 21 -90 3 -71 1 -83 -20 -113 -30 -44 -64 -68 -108 -76 -35 -6
-35 -6 -13 12 30 25 42 63 36 112 -3 22 -7 41 -8 41 -2 0 -11 -3 -20 -6 -15
-6 -15 -8 0 -24 11 -12 15 -31 13 -57 -3 -32 -9 -41 -39 -57 l-37 -20 -48 25
c-27 13 -51 25 -52 26 -2 1 -1 11 3 22 3 12 22 28 41 36 39 16 46 48 15 65
-33 17 -116 12 -141 -8 -28 -23 -20 -39 26 -58 50 -21 47 -57 -6 -84 -51 -26
-73 -25 -106 3 -33 29 -38 82 -8 104 16 12 17 15 4 23 -24 15 -26 13 -37 -35
-9 -38 -7 -52 7 -81 18 -35 18 -35 -3 -28 -72 21 -127 92 -127 164 0 43 24
106 42 112 10 4 10 8 0 21 -11 13 -11 23 -2 51 6 20 9 40 6 45 -3 5 1 14 9 21
8 7 15 17 15 22 0 6 12 24 26 41 21 25 25 38 21 69 -3 21 -2 38 1 38 13 0 67
-49 55 -50 -7 0 -13 -7 -13 -15 0 -19 -2 -19 44 5 68 34 132 35 259 4 19 -4
27 -2 27 7 0 7 12 23 28 36 29 24 44 31 24 11z m195 -55 c-2 -16 -4 -5 -4 22
0 28 2 40 4 28 2 -13 2 -35 0 -50z m128 7 c3 -5 1 -10 -4 -10 -6 0 -11 5 -11
10 0 6 2 10 4 10 3 0 8 -4 11 -10z m-82 -13 c3 -8 2 -20 -3 -26 -5 -9 -7 -4
-7 13 0 29 2 32 10 13z m-923 -27 c8 -5 11 -10 5 -10 -5 0 -17 5 -25 10 -8 5
-10 10 -5 10 6 0 17 -5 25 -10z m970 -9 c0 -6 -4 -13 -10 -16 -5 -3 -10 1 -10
9 0 9 5 16 10 16 6 0 10 -4 10 -9z m-890 -27 c0 -8 -5 -12 -10 -9 -6 4 -8 11
-5 16 9 14 15 11 15 -7z m795 6 c-3 -5 -11 -10 -16 -10 -6 0 -7 5 -4 10 3 6
11 10 16 10 6 0 7 -4 4 -10z m99 -62 c6 -51 9 -69 34 -220 21 -129 19 -135
-35 -141 -50 -6 -73 8 -73 45 1 24 31 241 50 356 0 1 4 2 9 2 6 0 12 -19 15
-42z m-474 -277 c0 -14 -29 -22 -56 -15 -38 10 -28 24 16 24 22 0 40 -4 40 -9z
m23 -133 c47 -24 -60 -70 -108 -47 -37 18 -42 37 -13 48 30 12 98 11 121 -1z
m-209 -24 c27 -8 57 -21 66 -29 32 -29 85 -30 142 -2 29 14 71 28 93 31 22 3
51 8 65 11 23 6 25 3 27 -33 2 -37 -3 -44 -87 -130 -49 -51 -105 -114 -123
-142 l-35 -51 -27 48 c-39 67 -128 177 -170 209 -31 23 -34 30 -33 70 2 36 5
43 18 38 8 -4 37 -13 64 -20z m-104 -20 c0 -4 -7 -12 -17 -19 -14 -11 -9 -17
40 -54 83 -61 220 -242 199 -263 -5 -5 -16 2 -27 18 -19 30 -69 81 -126 130
-21 18 -40 45 -44 63 -8 37 -31 37 -27 0 2 -20 -5 -27 -50 -46 -77 -31 -88
-34 -88 -21 0 12 62 118 97 166 22 29 43 42 43 26z m550 -16 c0 -6 -6 -5 -15
2 -8 7 -15 14 -15 16 0 2 7 1 15 -2 8 -4 15 -11 15 -16z m80 -120 c32 -51 58
-94 56 -95 -2 -2 -46 16 -99 41 -92 43 -96 45 -95 76 1 25 8 37 32 51 17 10
35 19 39 19 4 0 34 -41 67 -92z m-164 6 c-4 -14 -33 -51 -66 -81 -33 -30 -69
-71 -82 -91 -12 -19 -23 -31 -25 -25 -6 16 39 78 110 155 34 37 64 68 66 68 2
0 0 -12 -3 -26z m267 -95 c20 -25 37 -49 37 -52 0 -4 -28 -6 -62 -6 -82 1
-208 -42 -260 -89 -25 -21 -22 0 3 32 12 15 19 30 15 33 -9 10 -33 -16 -56
-60 l-21 -42 1 35 c3 50 1 55 -11 43 -6 -6 -11 -31 -11 -56 0 -55 -4 -57 -136
-57 l-94 0 3 38 c3 58 0 82 -11 82 -5 0 -10 -12 -11 -27 0 -25 -2 -23 -16 15
-16 47 -39 58 -30 15 3 -16 8 -35 12 -44 4 -11 -15 -6 -66 20 -65 32 -83 36
-166 39 -53 2 -91 8 -87 13 3 5 10 7 15 4 5 -4 9 2 9 12 0 24 19 43 35 37 7
-3 52 11 100 31 95 39 89 40 156 -20 65 -59 108 -114 119 -154 8 -30 17 -42
34 -47 29 -7 66 11 66 33 0 32 63 124 118 173 31 27 60 50 66 50 12 0 122 -44
161 -64 60 -31 79 -17 50 38 -29 55 -22 51 38 -25z m-798 -114 c32 -9 76 -26
98 -38 l40 -22 -32 -3 c-18 -2 -39 2 -46 8 -19 16 -202 22 -237 9 -15 -6 -34
-22 -43 -35 -11 -18 -25 -24 -50 -24 l-34 0 13 30 c32 77 158 109 291 75z
m343 -37 c-3 -25 -34 -36 -50 -20 -17 17 -1 42 27 42 22 0 26 -4 23 -22z
m-494 -57 c-10 -20 -15 -50 -12 -81 3 -55 -9 -64 -44 -33 -38 34 -10 122 46
143 28 10 29 9 10 -29z m106 35 c0 -2 -9 -26 -21 -53 -14 -33 -19 -61 -16 -90
5 -47 -4 -53 -40 -28 -57 40 -17 175 52 175 14 0 25 -2 25 -4z m73 -5 c15 -5
20 -21 23 -71 6 -83 0 -104 -32 -119 -36 -16 -59 -6 -75 31 -16 38 1 111 33
146 23 24 24 24 51 13z m671 -10 c9 -10 22 -43 28 -73 10 -49 9 -59 -5 -82
-10 -14 -29 -29 -42 -32 -41 -10 -55 10 -55 83 0 35 -5 74 -11 85 -9 16 -8 23
2 29 24 15 65 10 83 -10z m86 -13 c38 -63 19 -158 -32 -158 -16 0 -17 3 -8 21
13 23 5 85 -16 137 -13 31 -12 32 12 32 17 0 30 -10 44 -32z m62 1 c47 -62 36
-159 -17 -159 -22 0 -24 3 -15 19 15 29 12 93 -5 136 -15 34 -15 36 1 33 9 -2
26 -15 36 -29z m-251 -20 c19 -30 9 -55 -29 -77 -42 -23 -91 -22 -126 3 -27
21 -13 63 27 81 38 17 115 12 128 -7z m-399 -18 c27 -24 31 -33 22 -47 -16
-27 -57 -37 -102 -24 -36 9 -40 14 -45 48 -2 20 -2 40 0 45 2 4 24 7 48 7 35
0 52 -6 77 -29z"/>
<path d="M757 1133 c-13 -13 -7 -25 9 -19 25 10 61 -19 74 -59 12 -38 36 -50
24 -12 -13 41 -34 76 -53 87 -23 12 -45 13 -54 3z"/>
<path d="M598 1113 c-19 -22 -48 -78 -48 -93 0 -20 18 -10 24 13 8 35 45 77
67 77 10 0 19 5 19 10 0 17 -46 11 -62 -7z"/>
<path d="M752 1048 c-22 -22 -14 -76 14 -94 32 -21 48 -8 48 40 0 53 -34 82
-62 54z m38 -28 c0 -5 -7 -10 -15 -10 -8 0 -15 5 -15 10 0 6 7 10 15 10 8 0
15 -4 15 -10z"/>
<path d="M615 1020 c-20 -39 -13 -80 15 -80 47 0 69 102 23 108 -16 2 -26 -5
-38 -28z m45 0 c0 -5 -7 -10 -16 -10 -8 0 -12 5 -9 10 3 6 10 10 16 10 5 0 9
-4 9 -10z"/>
<path d="M750 915 c0 -24 22 -65 35 -65 9 0 6 13 -7 40 -21 43 -28 49 -28 25z"/>
<path d="M646 885 c-11 -19 -16 -38 -13 -41 6 -6 47 54 47 69 0 18 -17 4 -34
-28z"/>
</g>
</svg>
